Spatial regression
…
#get tract names to match up between population data set and census tract data set 
pop_shp$TRACT<-substring(pop_shp$GEOID, 6)
pop_shp<-subset(pop_shp, select=c("geometry", "tot_pop", "TRACT", "area"))
acs$TRACT<-substring(acs$GEOID, 6)
acs<-subset(acs, select=c("med_hh_income", "TRACT", "males_25_29", "tot_male"))
                          
#population as df to enable join with ACS
pop_shp<-as.data.frame(pop_shp)

#create new variables of arrests per tract and liquor stores per tract
arrests_in_tract <- st_join(arrests_sf, tracts_shp, join = st_within)
arrests_count <- count(as_tibble(arrests_in_tract), TRACT) %>%
  print()

## # A tibble: 153 x 2
##    TRACT      n
##    <chr>  <int>
##  1 000100     3
##  2 000201     2
##  3 000202     2
##  4 000300     2
##  5 000400     1
##  6 000501     3
##  7 000600     1
##  8 000701     1
##  9 000702     1
## 10 000802     1
## #  with 143 more rows

liquor_in_tract <- st_join(liquor_sf, tracts_shp, join = st_within)
liquor_count <- count(as_tibble(liquor_in_tract), TRACT) %>%
  print()

## # A tibble: 82 x 2
##    TRACT      n
##    <chr>  <int>
##  1 000202     6
##  2 000400     1
##  3 001001     2
##  4 001100     1
##  5 001302     5
##  6 001702     2
##  7 001901     1
##  8 001902     1
##  9 002001     1
## 10 002002     1
## #  with 72 more rows
…
